…
(You can use `read_tsv()` if the data are delimited with tabs. For any other delimiter character, you can use the flexible `read_delim()` but you will need to set the `delim` argument to tell R what delimiter to use. For example, for a semicolon, it would need to be something like `read_delim("path/to/data.txt", delim = ";")`.)

Now we see that the data are read in as a dataframe we can interact with in R! Woohoo.


``` r
csv_data
```

```
## # A tibble: 62 × 13
##    Country     Talent Infrastructure Operating Environmen…¹ Research Development
##    <chr>        <dbl>          <dbl>                  <dbl>    <dbl>       <dbl>
##  1 United Sta…  100             94.0                   64.6    100         100  
##  2 China         16.5          100                     91.6     71.4        80.0
##  3 United Kin…   39.6           71.4                   74.6     36.5        25.0
##  4 Canada        31.3           77.0                   93.9     30.7        25.8
##  5 Israel        35.8           67.6                   82.4     32.6        28.0
##  6 Singapore     39.4           84.3                   43.2     37.7        22.6
##  7 South Korea   14.5           85.2                   68.9     26.7        77.2
##  8 The Nether…   33.8           82.0                   88.0     25.5        30.2
##  9 Germany       27.6           77.2                   70.2     35.8        24.8
## 10 France        28.3           77.2                   80.0     25.5        21.4
## # ℹ 52 more rows
## # ℹ abbreviated name: ¹​`Operating Environment`
## # ℹ 7 more variables: `Government Strategy` <dbl>, Commercial <dbl>,
## #   `Total score` <dbl>, Region <chr>, Cluster <chr>, `Income group` <chr>,
## #   `Political regime` <chr>
```
…
```
## ✔ No differences
```

When we print the dataframe contents out, we can see that it looks like a normal R dataframe. Yay!


``` r
excel_data
```

```
## # A tibble: 185 × 8
##    `UNICEF Region` `ISO Code` Country         `2000` `2005` `2010` `2015` `2020`
##    <chr>           <chr>      <chr>            <dbl>  <dbl>  <dbl>  <dbl>  <dbl>
##  1 ROSA            AFG        Afghanistan       1346   1103    899    776    620
##  2 ECARO           ALB        Albania             14     11      9      7      8
##  3 MENA            DZA        Algeria            159    144    112     89     78
##  4 ESARO           AGO        Angola             860    550    367    274    222
##  5 LACRO           ATG        Antigua and Ba…     51     34     31     27     21
##  6 LACRO           ARG        Argentina           72     63     55     39     45
##  7 ECARO           ARM        Armenia             50     38     33     25     27
##  8 Industrialized  AUS        Australia            7      5      5      5      3
##  9 Industrialized  AUT        Austria              6      6      6      6      5
## 10 ECARO           AZE        Azerbaijan          56     44     33     29     41
## # ℹ 175 more rows
```
…
