…
### Why are all the columns reading in as character data?

When we first attempt to read in the data using all the default settings of `read_tsv()`, almost all of the columns are getting read in as character (or text) data. That's weird! The personality columns should all be numbers...


```r
big5_2018_raw
```

```
## # A tibble: 203,068 × 110
##    EXT1  EXT2  EXT3  EXT4  EXT5  EXT6  EXT7  EXT8  EXT9  EXT10 EST1  EST2  EST3 
##    <chr> <chr> <chr> <chr> <chr> <chr> <chr> <chr> <chr> <chr> <chr> <chr> <chr>
##  1 3     4     3     3     3     2     3     3     3     3     4     4     4    
##  2 3     2     4     2     5     1     5     3     4     3     3     3     3    
##  3 2     2     4     2     3     2     2     3     3     5     2     3     1    
##  4 3     1     3     1     5     1     2     4     2     4     4     3     4    
##  5 2     2     4     4     2     1     2     2     5     2     4     2     4    
##  6 4     2     5     3     4     2     5     3     2     3     4     4     4    
##  7 4     3     2     5     2     2     1     5     2     4     2     5     1    
##  8 5     2     5     1     5     1     4     2     4     2     4     2     5    
##  9 4     3     4     2     4     2     4     2     4     3     2     5     2    
## 10 1     3     4     4     4     2     2     4     2     4     2     3     3    
## # ℹ 203,058 more rows
## # ℹ 97 more variables: EST4 <chr>, EST5 <chr>, EST6 <chr>, EST7 <chr>,
## #   EST8 <chr>, EST9 <chr>, EST10 <chr>, AGR1 <chr>, AGR2 <chr>, AGR3 <chr>,
## #   AGR4 <chr>, AGR5 <chr>, AGR6 <chr>, AGR7 <chr>, AGR8 <chr>, AGR9 <chr>,
## #   AGR10 <chr>, CSN1 <chr>, CSN2 <chr>, CSN3 <chr>, CSN4 <chr>, CSN5 <chr>,
## #   CSN6 <chr>, CSN7 <chr>, CSN8 <chr>, CSN9 <chr>, CSN10 <chr>, OPN1 <chr>,
## #   OPN2 <chr>, OPN3 <chr>, OPN4 <chr>, OPN5 <chr>, OPN6 <chr>, OPN7 <chr>, …
```
…
Aha! This "NULL" value must be the problem. If we use `filter()` to get only the data that has "NULL" in the first column, we can see it clearly represents missing data across all the columns.


```r
big5_2018_raw |> 
  filter(EXT1 == "NULL")
```

```
## # A tibble: 367 × 110
##    EXT1  EXT2  EXT3  EXT4  EXT5  EXT6  EXT7  EXT8  EXT9  EXT10 EST1  EST2  EST3 
##    <chr> <chr> <chr> <chr> <chr> <chr> <chr> <chr> <chr> <chr> <chr> <chr> <chr>
##  1 NULL  NULL  NULL  NULL  NULL  NULL  NULL  NULL  NULL  NULL  NULL  NULL  NULL 
##  2 NULL  NULL  NULL  NULL  NULL  NULL  NULL  NULL  NULL  NULL  NULL  NULL  NULL 
##  3 NULL  NULL  NULL  NULL  NULL  NULL  NULL  NULL  NULL  NULL  NULL  NULL  NULL 
##  4 NULL  NULL  NULL  NULL  NULL  NULL  NULL  NULL  NULL  NULL  NULL  NULL  NULL 
##  5 NULL  NULL  NULL  NULL  NULL  NULL  NULL  NULL  NULL  NULL  NULL  NULL  NULL 
##  6 NULL  NULL  NULL  NULL  NULL  NULL  NULL  NULL  NULL  NULL  NULL  NULL  NULL 
##  7 NULL  NULL  NULL  NULL  NULL  NULL  NULL  NULL  NULL  NULL  NULL  NULL  NULL 
##  8 NULL  NULL  NULL  NULL  NULL  NULL  NULL  NULL  NULL  NULL  NULL  NULL  NULL 
##  9 NULL  NULL  NULL  NULL  NULL  NULL  NULL  NULL  NULL  NULL  NULL  NULL  NULL 
## 10 NULL  NULL  NULL  NULL  NULL  NULL  NULL  NULL  NULL  NULL  NULL  NULL  NULL 
## # ℹ 357 more rows
## # ℹ 97 more variables: EST4 <chr>, EST5 <chr>, EST6 <chr>, EST7 <chr>,
## #   EST8 <chr>, EST9 <chr>, EST10 <chr>, AGR1 <chr>, AGR2 <chr>, AGR3 <chr>,
## #   AGR4 <chr>, AGR5 <chr>, AGR6 <chr>, AGR7 <chr>, AGR8 <chr>, AGR9 <chr>,
## #   AGR10 <chr>, CSN1 <chr>, CSN2 <chr>, CSN3 <chr>, CSN4 <chr>, CSN5 <chr>,
## #   CSN6 <chr>, CSN7 <chr>, CSN8 <chr>, CSN9 <chr>, CSN10 <chr>, OPN1 <chr>,
## #   OPN2 <chr>, OPN3 <chr>, OPN4 <chr>, OPN5 <chr>, OPN6 <chr>, OPN7 <chr>, …
```
…
### What do the 0 personality responses represent?

The codebook file tells us that responses on each personality question go from 1 to 5, just like in the previous dataset. But we saw earlier that some values are 0... what do we think this means?

If we look at some rows where participants have a response of 0 for `EXT1`, we can see that it looks like 0 _also_ represents **missing** data. However, some of these people do have responses for some questions and not others, not like "NULL" when every single response was missing.


```r
big5_2018 |> 
  filter(EXT1 == 0)
```

```
## # A tibble: 743 × 50
##     EXT1  EXT2  EXT3  EXT4  EXT5  EXT6  EXT7  EXT8  EXT9 EXT10  EST1  EST2  EST3
##    <dbl> <dbl> <dbl> <dbl> <dbl> <dbl> <dbl> <dbl> <dbl> <dbl> <dbl> <dbl> <dbl>
##  1     0     0     0     0     0     0     0     0     0     0     0     0     0
##  2     0     0     0     0     0     0     0     0     0     0     0     0     0
##  3     0     2     4     5     4     2     3     1     5     2     3     5     4
##  4     0     0     0     0     2     0     0     0     0     0     0     0     0
##  5     0     3     5     1     0     5     5     1     3     2     5     3     5
##  6     0     3     3     3     3     2     2     4     2     4     2     3     4
##  7     0     2     3     4     3     2     2     4     4     4     2     4     4
##  8     0     0     0     0     0     0     0     0     0     0     0     0     0
##  9     0     0     0     0     0     0     0     0     0     0     0     0     0
## 10     0     0     0     0     0     0     0     0     0     0     0     0     0
## # ℹ 733 more rows
## # ℹ 37 more variables: EST4 <dbl>, EST5 <dbl>, EST6 <dbl>, EST7 <dbl>,
## #   EST8 <dbl>, EST9 <dbl>, EST10 <dbl>, AGR1 <dbl>, AGR2 <dbl>, AGR3 <dbl>,
## #   AGR4 <dbl>, AGR5 <dbl>, AGR6 <dbl>, AGR7 <dbl>, AGR8 <dbl>, AGR9 <dbl>,
## #   AGR10 <dbl>, CSN1 <dbl>, CSN2 <dbl>, CSN3 <dbl>, CSN4 <dbl>, CSN5 <dbl>,
## #   CSN6 <dbl>, CSN7 <dbl>, CSN8 <dbl>, CSN9 <dbl>, CSN10 <dbl>, OPN1 <dbl>,
## #   OPN2 <dbl>, OPN3 <dbl>, OPN4 <dbl>, OPN5 <dbl>, OPN6 <dbl>, OPN7 <dbl>, …
```
…
```r
big5_missing_counts
```

```
## # A tibble: 202,701 × 1
##    n_responded
##          <dbl>
##  1          50
##  2          49
##  3          50
##  4          49
##  5          50
##  6          50
##  7          50
##  8          50
##  9          50
## 10          50
## # ℹ 202,691 more rows
```
…
```r
# I'm overwriting the previous big5_2018 with the bind_cols version
big5_2018 <- bind_cols(big5_2018, big5_missing_counts) |> 
  select(n_responded, everything())
```


```r
big5_2018
```

```
## # A tibble: 202,701 × 51
##    n_responded  EXT1  EXT2  EXT3  EXT4  EXT5  EXT6  EXT7  EXT8  EXT9 EXT10  EST1
##          <dbl> <dbl> <dbl> <dbl> <dbl> <dbl> <dbl> <dbl> <dbl> <dbl> <dbl> <dbl>
##  1          50     3     4     3     3     3     2     3     3     3     3     4
##  2          49     3     2     4     2     5     1     5     3     4     3     3
##  3          50     2     2     4     2     3     2     2     3     3     5     2
##  4          49     3     1     3     1     5     1     2     4     2     4     4
##  5          50     2     2     4     4     2     1     2     2     5     2     4
##  6          50     4     2     5     3     4     2     5     3     2     3     4
##  7          50     4     3     2     5     2     2     1     5     2     4     2
##  8          50     5     2     5     1     5     1     4     2     4     2     4
##  9          50     4     3     4     2     4     2     4     2     4     3     2
## 10          50     1     3     4     4     4     2     2     4     2     4     2
## # ℹ 202,691 more rows
## # ℹ 39 more variables: EST2 <dbl>, EST3 <dbl>, EST4 <dbl>, EST5 <dbl>,
## #   EST6 <dbl>, EST7 <dbl>, EST8 <dbl>, EST9 <dbl>, EST10 <dbl>, AGR1 <dbl>,
## #   AGR2 <dbl>, AGR3 <dbl>, AGR4 <dbl>, AGR5 <dbl>, AGR6 <dbl>, AGR7 <dbl>,
## #   AGR8 <dbl>, AGR9 <dbl>, AGR10 <dbl>, CSN1 <dbl>, CSN2 <dbl>, CSN3 <dbl>,
## #   CSN4 <dbl>, CSN5 <dbl>, CSN6 <dbl>, CSN7 <dbl>, CSN8 <dbl>, CSN9 <dbl>,
## #   CSN10 <dbl>, OPN1 <dbl>, OPN2 <dbl>, OPN3 <dbl>, OPN4 <dbl>, OPN5 <dbl>, …
```
…
Now, we can use `filter()` to filter out participants whose numbers are too low. Let's see what happens when we keep only people who responded to all 50 questions.


```r
big5_2018 <- big5_2018 |> 
  filter(n_responded == 50)
```


```r
big5_2018
```

```
## # A tibble: 174,974 × 51
##    n_responded  EXT1  EXT2  EXT3  EXT4  EXT5  EXT6  EXT7  EXT8  EXT9 EXT10  EST1
##          <dbl> <dbl> <dbl> <dbl> <dbl> <dbl> <dbl> <dbl> <dbl> <dbl> <dbl> <dbl>
##  1          50     3     4     3     3     3     2     3     3     3     3     4
##  2          50     2     2     4     2     3     2     2     3     3     5     2
##  3          50     2     2     4     4     2     1     2     2     5     2     4
##  4          50     4     2     5     3     4     2     5     3     2     3     4
##  5          50     4     3     2     5     2     2     1     5     2     4     2
##  6          50     5     2     5     1     5     1     4     2     4     2     4
##  7          50     4     3     4     2     4     2     4     2     4     3     2
##  8          50     1     3     4     4     4     2     2     4     2     4     2
##  9          50     3     3     4     5     4     5     3     5     1     5     2
## 10          50     3     3     4     4     4     4     2     4     3     4     3
## # ℹ 174,964 more rows
## # ℹ 39 more variables: EST2 <dbl>, EST3 <dbl>, EST4 <dbl>, EST5 <dbl>,
## #   EST6 <dbl>, EST7 <dbl>, EST8 <dbl>, EST9 <dbl>, EST10 <dbl>, AGR1 <dbl>,
## #   AGR2 <dbl>, AGR3 <dbl>, AGR4 <dbl>, AGR5 <dbl>, AGR6 <dbl>, AGR7 <dbl>,
## #   AGR8 <dbl>, AGR9 <dbl>, AGR10 <dbl>, CSN1 <dbl>, CSN2 <dbl>, CSN3 <dbl>,
## #   CSN4 <dbl>, CSN5 <dbl>, CSN6 <dbl>, CSN7 <dbl>, CSN8 <dbl>, CSN9 <dbl>,
## #   CSN10 <dbl>, OPN1 <dbl>, OPN2 <dbl>, OPN3 <dbl>, OPN4 <dbl>, OPN5 <dbl>, …
```
…
```r
big5_2018
```

```
## # A tibble: 174,974 × 5
##    CSN_sum AGR_sum EST_sum OPN_sum EXT_sum
##      <dbl>   <dbl>   <dbl>   <dbl>   <dbl>
##  1      31      31      31      34      30
##  2      30      32      27      32      28
##  3      36      33      34      40      26
##  4      28      34      26      25      33
##  5      42      26      34      34      30
##  6      35      27      32      35      31
##  7      32      31      25      36      32
##  8      29      29      28      30      30
##  9      25      24      28      31      38
## 10      25      29      25      35      35
## # ℹ 174,964 more rows
```
…
