…
## Renaming columns

Often times, when you read in other people's data, they may have nice-looking column names that _are not legal variable names,_ usually because the column names have spaces in them.


``` r
csv_data
```

```
## # A tibble: 62 × 13
##    Country     Talent Infrastructure Operating Environmen…¹ Research Development
##    <chr>        <dbl>          <dbl>                  <dbl>    <dbl>       <dbl>
##  1 United Sta…  100             94.0                   64.6    100         100  
##  2 China         16.5          100                     91.6     71.4        80.0
##  3 United Kin…   39.6           71.4                   74.6     36.5        25.0
##  4 Canada        31.3           77.0                   93.9     30.7        25.8
##  5 Israel        35.8           67.6                   82.4     32.6        28.0
##  6 Singapore     39.4           84.3                   43.2     37.7        22.6
##  7 South Korea   14.5           85.2                   68.9     26.7        77.2
##  8 The Nether…   33.8           82.0                   88.0     25.5        30.2
##  9 Germany       27.6           77.2                   70.2     35.8        24.8
## 10 France        28.3           77.2                   80.0     25.5        21.4
## # ℹ 52 more rows
## # ℹ abbreviated name: ¹​`Operating Environment`
## # ℹ 7 more variables: `Government Strategy` <dbl>, Commercial <dbl>,
## #   `Total score` <dbl>, Region <chr>, Cluster <chr>, `Income group` <chr>,
## #   `Political regime` <chr>
```
…
You may recognize some of these code bits from other techniques like using `across()` inside `mutate()` to manipulate multiple columns at once. `rename_with()` is like `across()` but for renaming many columns at once, using a string function on the column names.

The `.fn` argument takes the function you want to pass over each column name. In this example, I'm using `str_replace_all()` to replace every space character in a column name with an underscore, to make it a legal variable name. You could even remove spaces by using `str_remove_all()` instead, but sometimes this makes column names harder to read. We always feed this function into the `.fn` argument starting with `\(x)`, which is necessary to tell R "pass this string function across every column name, one at a time".

Then, the `.cols` argument tells R which column names we want to rename. In this case, our function should only affect the names of columns that have spaces in them (otherwise, nothing gets replaced), so we can call the function on every single column using `everything()`. That way, the columns that need to get fixed get fixed, and the columns that don't need to get fixed stay the same.

Now, all column names are legal variable names, and we don't have to use the backtick quotes anymore.


``` r
csv_data
```

```
## # A tibble: 62 × 13
##    Country      Talent Infrastructure Operating_Environment Research Development
##    <chr>         <dbl>          <dbl>                 <dbl>    <dbl>       <dbl>
##  1 United Stat…  100             94.0                  64.6    100         100  
##  2 China          16.5          100                    91.6     71.4        80.0
##  3 United King…   39.6           71.4                  74.6     36.5        25.0
##  4 Canada         31.3           77.0                  93.9     30.7        25.8
##  5 Israel         35.8           67.6                  82.4     32.6        28.0
##  6 Singapore      39.4           84.3                  43.2     37.7        22.6
##  7 South Korea    14.5           85.2                  68.9     26.7        77.2
##  8 The Netherl…   33.8           82.0                  88.0     25.5        30.2
##  9 Germany        27.6           77.2                  70.2     35.8        24.8
## 10 France         28.3           77.2                  80.0     25.5        21.4
## # ℹ 52 more rows
## # ℹ 7 more variables: Government_Strategy <dbl>, Commercial <dbl>,
## #   Total_score <dbl>, Region <chr>, Cluster <chr>, Income_group <chr>,
## #   Political_regime <chr>
```
…
``` r
csv_data <- csv_data |> 
  select(-Cluster, -Political_regime)
```

Those columns should now be gone:


``` r
csv_data
```

```
## # A tibble: 62 × 11
##    Country      Talent Infrastructure Operating_Environment Research Development
##    <chr>         <dbl>          <dbl>                 <dbl>    <dbl>       <dbl>
##  1 United Stat…  100             94.0                  64.6    100         100  
##  2 China          16.5          100                    91.6     71.4        80.0
##  3 United King…   39.6           71.4                  74.6     36.5        25.0
##  4 Canada         31.3           77.0                  93.9     30.7        25.8
##  5 Israel         35.8           67.6                  82.4     32.6        28.0
##  6 Singapore      39.4           84.3                  43.2     37.7        22.6
##  7 South Korea    14.5           85.2                  68.9     26.7        77.2
##  8 The Netherl…   33.8           82.0                  88.0     25.5        30.2
##  9 Germany        27.6           77.2                  70.2     35.8        24.8
## 10 France         28.3           77.2                  80.0     25.5        21.4
## # ℹ 52 more rows
## # ℹ 5 more variables: Government_Strategy <dbl>, Commercial <dbl>,
## #   Total_score <dbl>, Region <chr>, Income_group <chr>
```

## Dropping rows with `filter()`

Refer to the [previous class notes on `filter()`](../class-notes-june-15-2023/#filter-choose-a-subset-of-rows) to see different logical & relational statements you can use to choose only the rows in your data you want to keep.

In particular, you might want to use `%in%` to keep only the rows of your data where the values in a particular column are in a list of interest. For example:


``` r
csv_data
```

```
## # A tibble: 62 × 11
##    Country      Talent Infrastructure Operating_Environment Research Development
##    <chr>         <dbl>          <dbl>                 <dbl>    <dbl>       <dbl>
##  1 United Stat…  100             94.0                  64.6    100         100  
##  2 China          16.5          100                    91.6     71.4        80.0
##  3 United King…   39.6           71.4                  74.6     36.5        25.0
##  4 Canada         31.3           77.0                  93.9     30.7        25.8
##  5 Israel         35.8           67.6                  82.4     32.6        28.0
##  6 Singapore      39.4           84.3                  43.2     37.7        22.6
##  7 South Korea    14.5           85.2                  68.9     26.7        77.2
##  8 The Netherl…   33.8           82.0                  88.0     25.5        30.2
##  9 Germany        27.6           77.2                  70.2     35.8        24.8
## 10 France         28.3           77.2                  80.0     25.5        21.4
## # ℹ 52 more rows
## # ℹ 5 more variables: Government_Strategy <dbl>, Commercial <dbl>,
## #   Total_score <dbl>, Region <chr>, Income_group <chr>
```
…
excel_data <- read_excel(here::here("ignore",
                                    "data",
                                    "MMR-maternal-deaths-and-LTR_MMEIG-trends_2000-2020_released-Feb_2023.xlsx"),
                         sheet = 2,
                         range = "A5:H190")
```


``` r
excel_data
```

```
## # A tibble: 185 × 8
##    `UNICEF Region` `ISO Code` Country         `2000` `2005` `2010` `2015` `2020`
##    <chr>           <chr>      <chr>            <dbl>  <dbl>  <dbl>  <dbl>  <dbl>
##  1 ROSA            AFG        Afghanistan       1346   1103    899    776    620
##  2 ECARO           ALB        Albania             14     11      9      7      8
##  3 MENA            DZA        Algeria            159    144    112     89     78
##  4 ESARO           AGO        Angola             860    550    367    274    222
##  5 LACRO           ATG        Antigua and Ba…     51     34     31     27     21
##  6 LACRO           ARG        Argentina           72     63     55     39     45
##  7 ECARO           ARM        Armenia             50     38     33     25     27
##  8 Industrialized  AUS        Australia            7      5      5      5      3
##  9 Industrialized  AUT        Austria              6      6      6      6      5
## 10 ECARO           AZE        Azerbaijan          56     44     33     29     41
## # ℹ 175 more rows
```
…
And now the data have one long column for maternal mortality rate, with identifying columns _both_ for country _and_ for year the data were collected!


``` r
excel_data_long
```

```
## # A tibble: 925 × 5
##    `UNICEF Region` `ISO Code` Country      Year   MMR
##    <chr>           <chr>      <chr>       <dbl> <dbl>
##  1 ROSA            AFG        Afghanistan  2000  1346
##  2 ROSA            AFG        Afghanistan  2005  1103
##  3 ROSA            AFG        Afghanistan  2010   899
##  4 ROSA            AFG        Afghanistan  2015   776
##  5 ROSA            AFG        Afghanistan  2020   620
##  6 ECARO           ALB        Albania      2000    14
##  7 ECARO           ALB        Albania      2005    11
##  8 ECARO           ALB        Albania      2010     9
##  9 ECARO           ALB        Albania      2015     7
## 10 ECARO           ALB        Albania      2020     8
## # ℹ 915 more rows
```
