…
We can now take a peek at what the raw data look like. When you’re using R interactively, you can click on the object’s name in the Environment pane and scroll around in the Viewer, but you can also preview the data in console output by *printing* the contents of the variable containing the data.

``` r
big5_raw
```

    ## # A tibble: 19,719 × 57
    ##     race   age engnat gender  hand source country    E1    E2    E3    E4    E5
    ##    <dbl> <dbl>  <dbl>  <dbl> <dbl>  <dbl> <chr>   <dbl> <dbl> <dbl> <dbl> <dbl>
    ##  1     3    53      1      1     1      1 US          4     2     5     2     5
    ##  2    13    46      1      2     1      1 US          2     2     3     3     3
    ##  3     1    14      2      2     1      1 PK          5     1     1     4     5
    ##  4     3    19      2      2     1      1 RO          2     5     2     4     3
    ##  5    11    25      2      2     1      2 US          3     1     3     3     3
    ##  6    13    31      1      2     1      2 US          1     5     2     4     1
    ##  7     5    20      1      2     1      5 US          5     1     5     1     5
    ##  8     4    23      2      1     1      2 IN          4     3     5     3     5
    ##  9     5    39      1      2     3      4 US          3     1     5     1     5
    ## 10     3    18      1      2     1      5 US          1     4     2     5     2
    ## # ℹ 19,709 more rows
    ## # ℹ 45 more variables: E6 <dbl>, E7 <dbl>, E8 <dbl>, E9 <dbl>, E10 <dbl>,
    ## #   N1 <dbl>, N2 <dbl>, N3 <dbl>, N4 <dbl>, N5 <dbl>, N6 <dbl>, N7 <dbl>,
    ## #   N8 <dbl>, N9 <dbl>, N10 <dbl>, A1 <dbl>, A2 <dbl>, A3 <dbl>, A4 <dbl>,
    ## #   A5 <dbl>, A6 <dbl>, A7 <dbl>, A8 <dbl>, A9 <dbl>, A10 <dbl>, C1 <dbl>,
    ## #   C2 <dbl>, C3 <dbl>, C4 <dbl>, C5 <dbl>, C6 <dbl>, C7 <dbl>, C8 <dbl>,
    ## #   C9 <dbl>, C10 <dbl>, O1 <dbl>, O2 <dbl>, O3 <dbl>, O4 <dbl>, O5 <dbl>, …
…
